{
	"dimension_var":"d",
	"spin_var":"l",
	"x_var":"x",
	"t_var":"t",
	"spurious_poles":[
		"-l",
		"-l",
		"4+l",
		"4+l",
		"2",
		"2"
	],
	"spurious_poles_L":[],
	"poles":[],
	"poles_L":[],
	"p":2,
	"type":"primal",
	"seed_type":"primal",
	"lambda_shift":6,
	"description":[],
	"exported_blocks":[
		"blockP2SpinEvenStructure5"
	],
	"blockP2SpinEvenStructure5":{
		"zPower":"-9\/2",
		"one_minus_zPower":"0",
		"h_infinity_order":2,
		"value":[
			{
				"coefficient":"-((-2 + d)^4*(-1 + 4*t - 4*x - 4*x^2)^2*(72 - 18*d + 54*l - 9*d*l + 9*l^2 + 24*d*t - 10*d^2*t + 24*l*t - 8*d*l*t + 2*l^2*t + 144*x - 48*d*x - 4*d^2*x + 96*l*x - 32*d*l*x + 8*l^2*x - 24*d*x^2 - 8*d^2*x^2 - 24*l*x^2 - 28*d*l*x^2 - 20*l^2*x^2))\/(4*l^2)",
				"perm":1234,
				"e":0,
				"ap":"1\/2",
				"bp":"-1\/2",
				"xt_derivs":[
					0,
					0
				]
			},
			{
				"coefficient":"((-2 + d)^4*(-1 + 4*t - 4*x - 4*x^2)^2*(28 - 6*d - 3*d^2 + 22*l - 9*d*l + l^2 - 96*t - 152*d*t + 34*d^2*t - 248*l*t - 8*d*l*t - 66*l^2*t - 64*t^2 - 64*d*t^2 + 136*d^2*t^2 - 128*l*t^2 + 240*d*l*t^2 + 88*l^2*t^2 + 16*x - 104*d*x - 4*d^2*x - 88*l*x - 60*d*l*x - 52*l^2*x - 704*t*x - 384*d*t*x + 384*d^2*t*x - 1088*l*t*x + 576*d*l*t*x + 16*l^2*t*x - 128*x^2 - 352*d*x^2 + 64*d^2*x^2 - 480*l*x^2 - 48*d*l*x^2 - 144*l^2*x^2 - 512*t*x^2 + 96*d*t*x^2 + 632*d^2*t*x^2 - 416*l*t*x^2 + 1312*d*l*t*x^2 + 552*l^2*t*x^2 + 192*x^3 - 352*d*x^3 + 208*d^2*x^3 - 160*l*x^3 + 240*d*l*x^3 + 80*l^2*x^3 + 576*x^4 - 32*d*x^4 + 176*d^2*x^4 + 544*l*x^4 + 336*d*l*x^4 + 304*l^2*x^4))\/(8*l^2)",
				"perm":1234,
				"e":0,
				"ap":"1\/2",
				"bp":"-1\/2",
				"xt_derivs":[
					0,
					1
				]
			},
			{
				"coefficient":"((-2 + d)^4*(-1 + 4*t - 4*x - 4*x^2)^2*(12 + 12*l + 3*l^2 - 176*t + 64*d*t - 12*d^2*t - 112*l*t + 8*d*l*t - 24*l^2*t + 832*t^2 - 448*d*t^2 + 24*d^2*t^2 + 384*l*t^2 - 176*d*l*t^2 + 8*l^2*t^2 - 1280*t^3 + 768*d*t^3 + 96*d^2*t^3 - 512*l*t^3 + 576*d*l*t^3 + 160*l^2*t^3 + 48*x + 48*l*x + 12*l^2*x - 576*t*x - 96*d*t*x - 56*d^2*t*x - 672*l*t*x - 160*d*l*t*x - 248*l^2*t*x + 1536*t^2*x - 896*d*t^2*x + 640*d^2*t^2*x + 640*l*t^2*x + 832*d*l*t^2*x + 576*l^2*t^2*x - 48*x^2 - 48*l*x^2 - 12*l^2*x^2 + 512*t*x^2 - 1600*d*t*x^2 + 208*d^2*t*x^2 - 1088*l*t*x^2 - 384*d*l*t*x^2 - 464*l^2*t*x^2 - 2304*t^2*x^2 + 1024*d*t^2*x^2 + 1184*d^2*t^2*x^2 - 1280*l*t^2*x^2 + 2880*d*l*t^2*x^2 + 1120*l^2*t^2*x^2 - 384*x^3 - 384*l*x^3 - 96*l^2*x^3 + 3328*t*x^3 - 3200*d*t*x^3 + 1120*d^2*t*x^3 + 128*l*t*x^3 + 640*d*l*t*x^3 + 352*l^2*t*x^3 - 192*x^4 - 192*l*x^4 - 48*l^2*x^4 + 2816*t*x^4 - 1792*d*t*x^4 + 1152*d^2*t*x^4 + 1024*l*t*x^4 + 1408*d*l*t*x^4 + 960*l^2*t*x^4 + 768*x^5 + 768*l*x^5 + 192*l^2*x^5 + 768*x^6 + 768*l*x^6 + 192*l^2*x^6))\/(16*l^2)",
				"perm":1234,
				"e":0,
				"ap":"1\/2",
				"bp":"-1\/2",
				"xt_derivs":[
					0,
					2
				]
			},
			{
				"coefficient":"((-2 + d)^4*t*(-1 + 4*t - 4*x - 4*x^2)^2*(4 + 4*l + l^2 - 48*t + 8*d*t - 40*l*t + 4*d*l*t - 8*l^2*t + 192*t^2 - 64*d*t^2 + 128*l*t^2 - 32*d*l*t^2 + 16*l^2*t^2 - 256*t^3 + 128*d*t^3 - 128*l*t^3 + 64*d*l*t^3 + 16*x + 16*l*x + 4*l^2*x - 128*t*x - 8*d^2*t*x - 128*l*t*x - 16*d*l*t*x - 40*l^2*t*x + 256*t^2*x + 32*d^2*t^2*x + 256*l*t^2*x + 64*d*l*t^2*x + 96*l^2*t^2*x - 16*x^2 - 16*l*x^2 - 4*l^2*x^2 + 128*t*x^2 - 192*d*t*x^2 + 16*d^2*t*x^2 - 64*l*t*x^2 - 64*d*l*t*x^2 - 48*l^2*t*x^2 - 256*t^2*x^2 + 256*d*t^2*x^2 + 64*d^2*t^2*x^2 + 256*d*l*t^2*x^2 + 128*l^2*t^2*x^2 - 128*x^3 - 128*l*x^3 - 32*l^2*x^3 + 512*t*x^3 - 512*d*t*x^3 + 160*d^2*t*x^3 + 64*d*l*t*x^3 + 32*l^2*t*x^3 - 64*x^4 - 64*l*x^4 - 16*l^2*x^4 + 256*t*x^4 - 384*d*t*x^4 + 192*d^2*t*x^4 - 128*l*t*x^4 + 192*d*l*t*x^4 + 64*l^2*t*x^4 + 256*x^5 + 256*l*x^5 + 64*l^2*x^5 + 256*x^6 + 256*l*x^6 + 64*l^2*x^6))\/(8*l^2)",
				"perm":1234,
				"e":0,
				"ap":"1\/2",
				"bp":"-1\/2",
				"xt_derivs":[
					0,
					3
				]
			},
			{
				"coefficient":"((-2 + d)^4*(-1 + 4*t - 4*x - 4*x^2)^2*(112 - 68*d + d^2 + 44*l - 32*d*l - 5*l^2 - 448*t - 112*d*t + 108*d^2*t - 560*l*t + 160*d*l*t - 60*l^2*t - 128*x - 200*d*x + 50*d^2*x - 328*l*x - 82*l^2*x - 288*d*t*x + 344*d^2*t*x - 288*l*t*x + 544*d*l*t*x + 200*l^2*t*x - 704*x^2 + 16*d*x^2 + 188*d^2*x^2 - 688*l*x^2 + 384*d*l*x^2 + 20*l^2*x^2 + 288*d*x^3 + 184*d^2*x^3 + 288*l*x^3 + 512*d*l*x^3 + 328*l^2*x^3))\/(16*l^2)",
				"perm":1234,
				"e":0,
				"ap":"1\/2",
				"bp":"-1\/2",
				"xt_derivs":[
					1,
					0
				]
			},
			{
				"coefficient":"((-2 + d)^4*(-1 + 4*t - 4*x - 4*x^2)^2*(-32 + 36*d - 3*d^2 + 4*l + 12*d*l + 7*l^2 + 256*t - 96*d*t - 64*d^2*t + 160*l*t - 176*d*l*t - 48*l^2*t - 512*t^2 - 192*d*t^2 + 304*d^2*t^2 - 704*l*t^2 + 512*d*l*t^2 + 80*l^2*t^2 - 288*x + 216*d*x - 42*d^2*x - 72*l*x + 24*d*l*x - 6*l^2*x + 2560*t*x - 2240*d*t*x + 272*d^2*t*x + 320*l*t*x - 576*d*l*t*x - 208*l^2*t*x - 5632*t^2*x + 2432*d*t^2*x + 992*d^2*t^2*x - 3200*l*t^2*x + 3200*d*l*t^2*x + 800*l^2*t^2*x - 640*x^2 + 288*d*x^2 - 120*d^2*x^2 - 352*l*x^2 - 96*d*l*x^2 - 136*l^2*x^2 + 5632*t*x^2 - 4736*d*t*x^2 + 2112*d^2*t*x^2 + 896*l*t*x^2 + 1856*d*l*t*x^2 + 1152*l^2*t*x^2 + 512*x^3 - 576*d*x^3 + 48*d^2*x^3 - 64*l*x^3 - 192*d*l*x^3 - 112*l^2*x^3 + 3072*t*x^3 - 1280*d*t*x^3 + 2624*d^2*t*x^3 + 1792*l*t*x^3 + 4608*d*l*t*x^3 + 2752*l^2*t*x^3 + 3072*x^4 - 1728*d*x^4 + 528*d^2*x^4 + 1344*l*x^4 + 192*d*l*x^4 + 432*l^2*x^4 + 2560*x^5 - 1152*d*x^5 + 480*d^2*x^5 + 1408*l*x^5 + 384*d*l*x^5 + 544*l^2*x^5))\/(32*l^2)",
				"perm":1234,
				"e":0,
				"ap":"1\/2",
				"bp":"-1\/2",
				"xt_derivs":[
					1,
					1
				]
			},
			{
				"coefficient":"((-2 + d)^4*t*(-1 + 4*t - 4*x - 4*x^2)^2*(4*d + d^2 + 4*l + 4*d*l + 3*l^2 - 32*d*t - 8*d^2*t - 32*l*t - 32*d*l*t - 24*l^2*t + 64*d*t^2 + 16*d^2*t^2 + 64*l*t^2 + 64*d*l*t^2 + 48*l^2*t^2 - 96*x + 56*d*x - 10*d^2*x - 40*l*x + 8*d*l*x - 6*l^2*x + 768*t*x - 448*d*t*x + 32*d^2*t*x + 320*l*t*x - 160*d*l*t*x - 1536*t^2*x + 896*d*t^2*x + 32*d^2*t^2*x - 640*l*t^2*x + 512*d*l*t^2*x + 96*l^2*t^2*x - 384*x^2 + 160*d*x^2 - 56*d^2*x^2 - 224*l*x^2 - 32*d*l*x^2 - 72*l^2*x^2 + 1536*t*x^2 - 896*d*t*x^2 + 352*d^2*t*x^2 + 640*l*t*x^2 + 256*d*l*t*x^2 + 288*l^2*t*x^2 - 64*d*x^3 - 16*d^2*x^3 - 64*l*x^3 - 64*d*l*x^3 - 48*l^2*x^3 - 256*d*t*x^3 + 512*d^2*t*x^3 - 256*l*t*x^3 + 896*d*l*t*x^3 + 384*l^2*t*x^3 + 1536*x^4 - 704*d*x^4 + 208*d^2*x^4 + 832*l*x^4 + 64*d*l*x^4 + 240*l^2*x^4 + 1536*x^5 - 640*d*x^5 + 224*d^2*x^5 + 896*l*x^5 + 128*d*l*x^5 + 288*l^2*x^5))\/(16*l^2)",
				"perm":1234,
				"e":0,
				"ap":"1\/2",
				"bp":"-1\/2",
				"xt_derivs":[
					1,
					2
				]
			},
			{
				"coefficient":"-((-2 + d)^4*(-1 + 4*t - 4*x - 4*x^2)^2*(16 - 22*d + 5*d^2 - 6*l - d*l - 2*l^2 - 128*t + 96*d*t - 14*d^2*t - 32*l*t + 20*d*l*t + 2*l^2*t + 256*t^2 - 32*d*t^2 - 24*d^2*t^2 + 224*l*t^2 - 64*d*l*t^2 + 24*l^2*t^2 - 16*x - 40*d*x + 20*d^2*x - 56*l*x + 20*d*l*x - 4*l^2*x + 64*t*x + 224*d*t*x - 152*d^2*t*x + 288*l*t*x - 192*d*l*t*x - 24*l^2*t*x - 352*x^2 + 160*d*x^2 - 16*d^2*x^2 - 192*l*x^2 + 48*d*l*x^2 - 24*l^2*x^2 + 128*t*x^2 - 192*d*t*x^2 - 248*d^2*t*x^2 - 64*l*t*x^2 - 592*d*l*t*x^2 - 312*l^2*t*x^2 - 704*x^3 + 416*d*x^3 - 144*d^2*x^3 - 288*l*x^3 - 80*d*l*x^3 - 112*l^2*x^3 - 384*x^4 + 224*d*x^4 - 144*d^2*x^4 - 160*l*x^4 - 176*d*l*x^4 - 128*l^2*x^4))\/(16*l^2)",
				"perm":1234,
				"e":0,
				"ap":"1\/2",
				"bp":"-1\/2",
				"xt_derivs":[
					2,
					0
				]
			},
			{
				"coefficient":"((-2 + d)^4*(-1 + 4*t - 4*x - 4*x^2)^2*(4 - 4*d + d^2 - 48*t + 40*d*t - 8*d^2*t - 8*l*t + 4*d*l*t + 192*t^2 - 128*d*t^2 + 16*d^2*t^2 + 64*l*t^2 - 32*d*l*t^2 - 256*t^3 + 128*d*t^3 - 128*l*t^3 + 64*d*l*t^3 + 16*x - 16*d*x + 4*d^2*x - 128*t*x + 128*d*t*x - 56*d^2*t*x - 48*d*l*t*x - 24*l^2*t*x + 256*t^2*x - 256*d*t^2*x + 160*d^2*t^2*x + 192*d*l*t^2*x + 96*l^2*t^2*x - 16*x^2 + 16*d*x^2 - 4*d^2*x^2 + 640*t*x^2 - 192*d*t*x^2 - 16*d^2*t*x^2 + 448*l*t*x^2 - 128*d*l*t*x^2 + 48*l^2*t*x^2 - 2304*t^2*x^2 + 1024*d*t^2*x^2 + 256*d^2*t^2*x^2 - 1280*l*t^2*x^2 + 1024*d*l*t^2*x^2 + 192*l^2*t^2*x^2 - 128*x^3 + 128*d*x^3 - 32*d^2*x^3 + 2560*t*x^3 - 1024*d*t*x^3 + 352*d^2*t*x^3 + 1536*l*t*x^3 + 192*d*l*t*x^3 + 480*l^2*t*x^3 - 64*x^4 + 64*d*x^4 - 16*d^2*x^4 + 2304*t*x^4 - 896*d*t*x^4 + 448*d^2*t*x^4 + 1408*l*t*x^4 + 448*d*l*t*x^4 + 576*l^2*t*x^4 + 256*x^5 - 256*d*x^5 + 64*d^2*x^5 + 256*x^6 - 256*d*x^6 + 64*d^2*x^6))\/(32*l^2)",
				"perm":1234,
				"e":0,
				"ap":"1\/2",
				"bp":"-1\/2",
				"xt_derivs":[
					2,
					1
				]
			},
			{
				"coefficient":"-((-2 + d)^4*(-1 + 4*t - 4*x - 4*x^2)^2*(4*d - d^2 + 4*l + l^2 - 32*d*t + 8*d^2*t - 32*l*t - 8*l^2*t + 64*d*t^2 - 16*d^2*t^2 + 64*l*t^2 + 16*l^2*t^2 + 32*x - 8*d*x + 2*d^2*x + 24*l*x + 6*l^2*x - 256*t*x + 64*d*t*x - 192*l*t*x + 32*d*l*t*x - 32*l^2*t*x + 512*t^2*x - 128*d*t^2*x - 32*d^2*t^2*x + 384*l*t^2*x - 128*d*l*t^2*x + 32*l^2*t^2*x + 128*x^2 - 96*d*x^2 + 24*d^2*x^2 + 32*l*x^2 + 8*l^2*x^2 - 512*t*x^2 + 128*d*t*x^2 - 96*d^2*t*x^2 - 384*l*t*x^2 - 128*d*l*t*x^2 - 160*l^2*t*x^2 - 64*d*x^3 + 16*d^2*x^3 - 64*l*x^3 - 16*l^2*x^3 - 256*d*t*x^3 - 128*d^2*t*x^3 - 256*l*t*x^3 - 384*d*l*t*x^3 - 256*l^2*t*x^3 - 512*x^4 + 320*d*x^4 - 80*d^2*x^4 - 192*l*x^4 - 48*l^2*x^4 - 512*x^5 + 384*d*x^5 - 96*d^2*x^5 - 128*l*x^5 - 32*l^2*x^5))\/(64*l^2)",
				"perm":1234,
				"e":0,
				"ap":"1\/2",
				"bp":"-1\/2",
				"xt_derivs":[
					3,
					0
				]
			},
			{
				"coefficient":"-((-2 + d)^4*(96 - 12*d + 3*d^2 + 84*l + 21*l^2 + 32*x - 8*d*x + 2*d^2*x + 24*l*x + 6*l^2*x)*(-1 + 4*t - 4*x - 4*x^2)^2)\/(8*l^2)",
				"perm":1234,
				"e":1,
				"ap":"1\/2",
				"bp":"-1\/2",
				"xt_derivs":[
					0,
					0
				]
			},
			{
				"coefficient":"-((-2 + d)^4*(-1 + 4*t - 4*x - 4*x^2)^2*(40 + 4*d - d^2 + 44*l + 11*l^2 - 160*t + 304*d*t - 76*d^2*t + 144*l*t + 36*l^2*t + 144*x + 104*d*x - 26*d^2*x + 248*l*x + 62*l^2*x - 832*t*x + 864*d*t*x - 216*d^2*t*x + 32*l*t*x + 8*l^2*t*x - 288*x^2 + 368*d*x^2 - 92*d^2*x^2 + 80*l*x^2 + 20*l^2*x^2 - 832*x^3 + 352*d*x^3 - 88*d^2*x^3 - 480*l*x^3 - 120*l^2*x^3))\/(16*l^2)",
				"perm":1234,
				"e":1,
				"ap":"1\/2",
				"bp":"-1\/2",
				"xt_derivs":[
					0,
					1
				]
			},
			{
				"coefficient":"((-2 + d)^4*(-1 + 4*t - 4*x - 4*x^2)^2*(12 + 12*l + 3*l^2 - 192*t + 56*d*t - 14*d^2*t - 136*l*t - 34*l^2*t + 576*t^2 - 224*d*t^2 + 56*d^2*t^2 + 352*l*t^2 + 88*l^2*t^2 + 24*x + 24*l*x + 6*l^2*x - 640*t*x + 16*d*t*x - 4*d^2*t*x - 624*l*t*x - 156*l^2*t*x + 2688*t^2*x - 1472*d*t^2*x + 368*d^2*t^2*x + 1216*l*t^2*x + 304*l^2*t^2*x - 96*x^2 - 96*l*x^2 - 24*l^2*x^2 + 1024*t*x^2 - 1120*d*t*x^2 + 280*d^2*t*x^2 - 96*l*t*x^2 - 24*l^2*t*x^2 - 192*x^3 - 192*l*x^3 - 48*l^2*x^3 + 3072*t*x^3 - 1856*d*t*x^3 + 464*d^2*t*x^3 + 1216*l*t*x^3 + 304*l^2*t*x^3 + 192*x^4 + 192*l*x^4 + 48*l^2*x^4 + 384*x^5 + 384*l*x^5 + 96*l^2*x^5))\/(16*l^2)",
				"perm":1234,
				"e":1,
				"ap":"1\/2",
				"bp":"-1\/2",
				"xt_derivs":[
					0,
					2
				]
			},
			{
				"coefficient":"((-2 + d)^4*t*(-1 + 4*t - 4*x - 4*x^2)^2*(4 + 4*l + l^2 - 32*t - 32*l*t - 8*l^2*t + 64*t^2 + 64*l*t^2 + 16*l^2*t^2 + 8*x + 8*l*x + 2*l^2*x - 128*t*x + 32*d*t*x - 8*d^2*t*x - 96*l*t*x - 24*l^2*t*x + 384*t^2*x - 128*d*t^2*x + 32*d^2*t^2*x + 256*l*t^2*x + 64*l^2*t^2*x - 32*x^2 - 32*l*x^2 - 8*l^2*x^2 + 128*t*x^2 - 128*d*t*x^2 + 32*d^2*t*x^2 - 64*x^3 - 64*l*x^3 - 16*l^2*x^3 + 512*t*x^3 - 384*d*t*x^3 + 96*d^2*t*x^3 + 128*l*t*x^3 + 32*l^2*t*x^3 + 64*x^4 + 64*l*x^4 + 16*l^2*x^4 + 128*x^5 + 128*l*x^5 + 32*l^2*x^5))\/(8*l^2)",
				"perm":1234,
				"e":1,
				"ap":"1\/2",
				"bp":"-1\/2",
				"xt_derivs":[
					0,
					3
				]
			},
			{
				"coefficient":"-((-2 + d)^4*(-1 + 4*t - 4*x - 4*x^2)^2*(60*d - 15*d^2 + 60*l + 15*l^2 + 80*d*t - 20*d^2*t + 80*l*t + 20*l^2*t + 32*x + 96*d*x - 24*d^2*x + 128*l*x + 32*l^2*x - 64*x^2 + 80*d*x^2 - 20*d^2*x^2 + 16*l*x^2 + 4*l^2*x^2))\/(16*l^2)",
				"perm":1234,
				"e":1,
				"ap":"1\/2",
				"bp":"-1\/2",
				"xt_derivs":[
					1,
					0
				]
			},
			{
				"coefficient":"((-2 + d)^4*(-1 + 4*t - 4*x - 4*x^2)^2*(28*d - 7*d^2 + 28*l + 7*l^2 - 256*t + 64*d*t - 16*d^2*t - 192*l*t - 48*l^2*t + 1024*t^2 - 704*d*t^2 + 176*d^2*t^2 + 320*l*t^2 + 80*l^2*t^2 - 224*x + 144*d*x - 36*d^2*x - 80*l*x - 20*l^2*x + 1920*t*x - 1728*d*t*x + 432*d^2*t*x + 192*l*t*x + 48*l^2*t*x - 448*x^2 + 64*d*x^2 - 16*d^2*x^2 - 384*l*x^2 - 96*l^2*x^2 + 6400*t*x^2 - 3712*d*t*x^2 + 928*d^2*t*x^2 + 2688*l*t*x^2 + 672*l^2*t*x^2 + 896*x^3 - 576*d*x^3 + 144*d^2*x^3 + 320*l*x^3 + 80*l^2*x^3 + 1792*x^4 - 704*d*x^4 + 176*d^2*x^4 + 1088*l*x^4 + 272*l^2*x^4))\/(32*l^2)",
				"perm":1234,
				"e":1,
				"ap":"1\/2",
				"bp":"-1\/2",
				"xt_derivs":[
					1,
					1
				]
			},
			{
				"coefficient":"((-2 + d)^4*t*(-1 + 4*t - 4*x - 4*x^2)^2*(16 - 4*d + d^2 + 12*l + 3*l^2 - 128*t + 32*d*t - 8*d^2*t - 96*l*t - 24*l^2*t + 256*t^2 - 64*d*t^2 + 16*d^2*t^2 + 192*l*t^2 + 48*l^2*t^2 - 96*x + 48*d*x - 12*d^2*x - 48*l*x - 12*l^2*x + 384*t*x - 192*d*t*x + 48*d^2*t*x + 192*l*t*x + 48*l^2*t*x - 320*x^2 + 128*d*x^2 - 32*d^2*x^2 - 192*l*x^2 - 48*l^2*x^2 + 1792*t*x^2 - 1024*d*t*x^2 + 256*d^2*t*x^2 + 768*l*t*x^2 + 192*l^2*t*x^2 + 384*x^3 - 192*d*x^3 + 48*d^2*x^3 + 192*l*x^3 + 48*l^2*x^3 + 1024*x^4 - 448*d*x^4 + 112*d^2*x^4 + 576*l*x^4 + 144*l^2*x^4))\/(16*l^2)",
				"perm":1234,
				"e":1,
				"ap":"1\/2",
				"bp":"-1\/2",
				"xt_derivs":[
					1,
					2
				]
			},
			{
				"coefficient":"((-2 + d)^4*(-1 + 4*t - 4*x - 4*x^2)^2*(-16 + 44*d - 11*d^2 + 28*l + 7*l^2 + 64*t - 176*d*t + 44*d^2*t - 112*l*t - 28*l^2*t + 24*d*x - 6*d^2*x + 24*l*x + 6*l^2*x + 768*t*x - 544*d*t*x + 136*d^2*t*x + 224*l*t*x + 56*l^2*t*x + 448*x^2 - 304*d*x^2 + 76*d^2*x^2 + 144*l*x^2 + 36*l^2*x^2 + 768*x^3 - 352*d*x^3 + 88*d^2*x^3 + 416*l*x^3 + 104*l^2*x^3))\/(32*l^2)",
				"perm":1234,
				"e":1,
				"ap":"1\/2",
				"bp":"-1\/2",
				"xt_derivs":[
					2,
					0
				]
			},
			{
				"coefficient":"((-2 + d)^4*(-1 + 4*t - 4*x - 4*x^2)^2*(4 - 4*d + d^2 - 32*t + 32*d*t - 8*d^2*t + 64*t^2 - 64*d*t^2 + 16*d^2*t^2 + 8*x - 8*d*x + 2*d^2*x - 256*t*x + 160*d*t*x - 40*d^2*t*x - 96*l*t*x - 24*l^2*t*x + 896*t^2*x - 512*d*t^2*x + 128*d^2*t^2*x + 384*l*t^2*x + 96*l^2*t^2*x - 32*x^2 + 32*d*x^2 - 8*d^2*x^2 + 640*t*x^2 - 256*d*t*x^2 + 64*d^2*t*x^2 + 384*l*t*x^2 + 96*l^2*t*x^2 - 64*x^3 + 64*d*x^3 - 16*d^2*x^3 + 2048*t*x^3 - 896*d*t*x^3 + 224*d^2*t*x^3 + 1152*l*t*x^3 + 288*l^2*t*x^3 + 64*x^4 - 64*d*x^4 + 16*d^2*x^4 + 128*x^5 - 128*d*x^5 + 32*d^2*x^5))\/(32*l^2)",
				"perm":1234,
				"e":1,
				"ap":"1\/2",
				"bp":"-1\/2",
				"xt_derivs":[
					2,
					1
				]
			},
			{
				"coefficient":"-((-2 + d)^4*(-1 + 4*t - 4*x - 4*x^2)^2*(4*d - d^2 + 4*l + l^2 - 32*d*t + 8*d^2*t - 32*l*t - 8*l^2*t + 64*d*t^2 - 16*d^2*t^2 + 64*l*t^2 + 16*l^2*t^2 + 32*x - 16*d*x + 4*d^2*x + 16*l*x + 4*l^2*x - 128*t*x + 64*d*t*x - 16*d^2*t*x - 64*l*t*x - 16*l^2*t*x + 64*x^2 - 64*d*x^2 + 16*d^2*x^2 - 768*t*x^2 + 256*d*t*x^2 - 64*d^2*t*x^2 - 512*l*t*x^2 - 128*l^2*t*x^2 - 128*x^3 + 64*d*x^3 - 16*d^2*x^3 - 64*l*x^3 - 16*l^2*x^3 - 256*x^4 + 192*d*x^4 - 48*d^2*x^4 - 64*l*x^4 - 16*l^2*x^4))\/(64*l^2)",
				"perm":1234,
				"e":1,
				"ap":"1\/2",
				"bp":"-1\/2",
				"xt_derivs":[
					3,
					0
				]
			},
			{
				"coefficient":"-((-2 + d)^4*(-1 + 4*t - 4*x - 4*x^2)*(8 + 26*d + 3*d^2 + 34*l + 19*d*l + 18*l^2 + 32*t + 24*d*t + 2*d^2*t + 56*l*t + 16*d*l*t + 22*l^2*t - 16*x + 48*d*x + 4*d^2*x + 32*l*x + 32*d*l*x + 24*l^2*x - 64*x^2 - 8*d*x^2 - 4*d^2*x^2 - 72*l*x^2 - 12*d*l*x^2 - 24*l^2*x^2))\/(4*l^2)",
				"perm":1234,
				"e":2,
				"ap":"1\/2",
				"bp":"-1\/2",
				"xt_derivs":[
					0,
					0
				]
			},
			{
				"coefficient":"((-2 + d)^4*(-1 + 4*t - 4*x - 4*x^2)*(36 - 18*d - 6*d^2 + 18*l - 21*d*l - 6*l^2 + 32*t + 248*d*t - 38*d^2*t + 280*l*t + 48*d*l*t + 94*l^2*t - 192*t^2 + 320*d*t^2 - 40*d^2*t^2 + 128*l*t^2 + 80*d*l*t^2 + 72*l^2*t^2 + 240*x + 8*d*x - 32*d^2*x + 248*l*x - 60*d*l*x + 32*l^2*x - 1216*t*x + 1472*d*t*x - 192*d^2*t*x + 256*l*t*x + 352*d*l*t*x + 240*l^2*t*x + 128*x^2 + 352*d*x^2 - 64*d^2*x^2 + 480*l*x^2 + 48*d*l*x^2 + 144*l^2*x^2 - 3072*t*x^2 + 1696*d*t*x^2 - 232*d^2*t*x^2 - 1376*l*t*x^2 + 384*d*l*t*x^2 - 152*l^2*t*x^2 - 1216*x^3 + 736*d*x^3 - 64*d^2*x^3 - 480*l*x^3 + 240*d*l*x^3 - 1600*x^4 + 416*d*x^4 - 32*d^2*x^4 - 1184*l*x^4 + 144*d*l*x^4 - 224*l^2*x^4))\/(8*l^2)",
				"perm":1234,
				"e":2,
				"ap":"1\/2",
				"bp":"-1\/2",
				"xt_derivs":[
					0,
					1
				]
			},
			{
				"coefficient":"-((-2 + d)^4*(-1 + 4*t - 4*x - 4*x^2)*(12 + 12*l + 3*l^2 - 144*t + 80*d*t - 16*d^2*t - 64*l*t + 8*d*l*t - 12*l^2*t - 64*t^2 - 128*d*t^2 + 40*d^2*t^2 - 192*l*t^2 + 16*d*l*t^2 - 40*l^2*t^2 + 1792*t^3 - 768*d*t^3 + 96*d^2*t^3 + 1024*l*t^3 - 192*d*l*t^3 + 160*l^2*t^3 + 48*x + 48*l*x + 12*l^2*x - 1472*t*x + 352*d*t*x - 8*d^2*t*x - 1120*l*t*x + 160*d*l*t*x - 200*l^2*t*x + 5632*t^2*x - 3456*d*t^2*x + 512*d^2*t^2*x + 2176*l*t^2*x - 704*d*l*t^2*x + 192*l^2*t^2*x - 48*x^2 - 48*l*x^2 - 12*l^2*x^2 - 1536*t*x^2 - 832*d*t*x^2 + 336*d^2*t*x^2 - 2368*l*t*x^2 + 256*d*l*t*x^2 - 464*l^2*t*x^2 + 13568*t^2*x^2 - 7424*d*t^2*x^2 + 864*d^2*t^2*x^2 + 6144*l*t^2*x^2 - 1984*d*l*t^2*x^2 + 544*l^2*t^2*x^2 - 384*x^3 - 384*l*x^3 - 96*l^2*x^3 + 6912*t*x^3 - 4992*d*t*x^3 + 928*d^2*t*x^3 + 1920*l*t*x^3 - 640*d*l*t*x^3 + 160*l^2*t*x^3 - 192*x^4 - 192*l*x^4 - 48*l^2*x^4 + 10496*t*x^4 - 5120*d*t*x^4 + 704*d^2*t*x^4 + 5376*l*t*x^4 - 1152*d*l*t*x^4 + 768*l^2*t*x^4 + 768*x^5 + 768*l*x^5 + 192*l^2*x^5 + 768*x^6 + 768*l*x^6 + 192*l^2*x^6))\/(16*l^2)",
				"perm":1234,
				"e":2,
				"ap":"1\/2",
				"bp":"-1\/2",
				"xt_derivs":[
					0,
					2
				]
			},
			{
				"coefficient":"((-2 + d)^4*t*(-1 + 4*t - 4*x - 4*x^2)*(-4 - 4*l - l^2 + 16*t + 8*d*t + 24*l*t + 4*d*l*t + 8*l^2*t + 64*t^2 - 64*d*t^2 - 32*d*l*t^2 - 16*l^2*t^2 - 256*t^3 + 128*d*t^3 - 128*l*t^3 + 64*d*l*t^3 - 16*x - 16*l*x - 4*l^2*x + 256*t*x - 64*d*t*x + 8*d^2*t*x + 192*l*t*x - 16*d*l*t*x + 40*l^2*t*x - 768*t^2*x + 256*d*t^2*x - 32*d^2*t^2*x - 512*l*t^2*x + 64*d*l*t^2*x - 96*l^2*t^2*x + 16*x^2 + 16*l*x^2 + 4*l^2*x^2 + 384*t*x^2 - 64*d*t*x^2 - 16*d^2*t*x^2 + 320*l*t*x^2 - 64*d*l*t*x^2 + 48*l^2*t*x^2 - 1792*t^2*x^2 + 768*d*t^2*x^2 - 64*d^2*t^2*x^2 - 1024*l*t^2*x^2 + 256*d*l*t^2*x^2 - 128*l^2*t^2*x^2 + 128*x^3 + 128*l*x^3 + 32*l^2*x^3 - 1024*t*x^3 + 768*d*t*x^3 - 160*d^2*t*x^3 - 256*l*t*x^3 + 64*d*l*t*x^3 - 32*l^2*t*x^3 + 64*x^4 + 64*l*x^4 + 16*l^2*x^4 - 1792*t*x^4 + 1152*d*t*x^4 - 192*d^2*t*x^4 - 640*l*t*x^4 + 192*d*l*t*x^4 - 64*l^2*t*x^4 - 256*x^5 - 256*l*x^5 - 64*l^2*x^5 - 256*x^6 - 256*l*x^6 - 64*l^2*x^6))\/(8*l^2)",
				"perm":1234,
				"e":2,
				"ap":"1\/2",
				"bp":"-1\/2",
				"xt_derivs":[
					0,
					3
				]
			},
			{
				"coefficient":"((-2 + d)^4*(-1 + 4*t - 4*x - 4*x^2)*(80 + 52*d - 21*d^2 + 132*l - 16*d*l + 25*l^2 - 64*t + 304*d*t - 60*d^2*t + 240*l*t + 32*d*l*t + 76*l^2*t + 128*x + 360*d*x - 26*d^2*x + 488*l*x + 128*d*l*x + 186*l^2*x - 256*t*x + 544*d*t*x - 56*d^2*t*x + 288*l*t*x + 160*d*l*t*x + 152*l^2*t*x - 576*x^2 + 560*d*x^2 + 20*d^2*x^2 - 16*l*x^2 + 320*d*l*x^2 + 156*l^2*x^2 - 1024*x^3 + 96*d*x^3 - 24*d^2*x^3 - 928*l*x^3 - 232*l^2*x^3))\/(16*l^2)",
				"perm":1234,
				"e":2,
				"ap":"1\/2",
				"bp":"-1\/2",
				"xt_derivs":[
					1,
					0
				]
			},
			{
				"coefficient":"-((-2 + d)^4*(-1 + 4*t - 4*x - 4*x^2)*(32 + 20*d - 11*d^2 + 52*l - 12*d*l + 7*l^2 - 640*t + 352*d*t - 16*d^2*t - 288*l*t + 144*d*l*t + 2048*t^2 - 1728*d*t^2 + 240*d^2*t^2 + 320*l*t^2 - 384*d*l*t^2 - 112*l^2*t^2 - 160*x + 184*d*x - 58*d^2*x + 24*l*x - 24*d*l*x - 6*l^2*x - 512*t*x - 1216*d*t*x + 432*d^2*t*x - 1728*l*t*x + 256*d*l*t*x - 304*l^2*t*x + 10752*t^2*x - 6272*d*t^2*x + 864*d^2*t^2*x + 4480*l*t^2*x - 1408*d*l*t^2*x + 416*l^2*t^2*x - 1152*x^2 + 416*d*x^2 - 56*d^2*x^2 - 736*l*x^2 + 96*d*l*x^2 - 136*l^2*x^2 + 14336*t*x^2 - 10112*d*t*x^2 + 1664*d^2*t*x^2 + 4224*l*t*x^2 - 1728*d*l*t*x^2 + 192*l^2*t*x^2 - 512*x^3 - 320*d*x^3 + 176*d^2*x^3 - 832*l*x^3 + 192*d*l*x^3 - 112*l^2*x^3 + 25600*t*x^3 - 12544*d*t*x^3 + 1472*d^2*t*x^3 + 13056*l*t*x^3 - 3328*d*l*t*x^3 + 1600*l^2*t*x^3 + 4096*x^4 - 1984*d*x^4 + 400*d^2*x^4 + 2112*l*x^4 - 192*d*l*x^4 + 432*l^2*x^4 + 4608*x^5 - 1664*d*x^5 + 224*d^2*x^5 + 2944*l*x^5 - 384*d*l*x^5 + 544*l^2*x^5))\/(32*l^2)",
				"perm":1234,
				"e":2,
				"ap":"1\/2",
				"bp":"-1\/2",
				"xt_derivs":[
					1,
					1
				]
			},
			{
				"coefficient":"-((-2 + d)^4*t*(-1 + 4*t - 4*x - 4*x^2)*(32 - 12*d + d^2 + 20*l - 4*d*l + 3*l^2 - 256*t + 96*d*t - 8*d^2*t - 160*l*t + 32*d*l*t - 24*l^2*t + 512*t^2 - 192*d*t^2 + 16*d^2*t^2 + 320*l*t^2 - 64*d*l*t^2 + 48*l^2*t^2 - 32*x + 24*d*x - 10*d^2*x - 8*l*x - 8*d*l*x - 6*l^2*x - 512*t*x + 192*d*t*x + 32*d^2*t*x - 320*l*t*x + 160*d*l*t*x + 2560*t^2*x - 1152*d*t^2*x + 32*d^2*t^2*x + 1408*l*t^2*x - 512*d*l*t^2*x + 96*l^2*t^2*x - 640*x^2 + 288*d*x^2 - 56*d^2*x^2 - 352*l*x^2 + 32*d*l*x^2 - 72*l^2*x^2 + 3584*t*x^2 - 1920*d*t*x^2 + 352*d^2*t*x^2 + 1664*l*t*x^2 - 256*d*l*t*x^2 + 288*l^2*t*x^2 - 512*x^3 + 192*d*x^3 - 16*d^2*x^3 - 320*l*x^3 + 64*d*l*x^3 - 48*l^2*x^3 + 7168*t*x^3 - 3840*d*t*x^3 + 512*d^2*t*x^3 + 3328*l*t*x^3 - 896*d*l*t*x^3 + 384*l^2*t*x^3 + 2048*x^4 - 960*d*x^4 + 208*d^2*x^4 + 1088*l*x^4 - 64*d*l*x^4 + 240*l^2*x^4 + 2560*x^5 - 1152*d*x^5 + 224*d^2*x^5 + 1408*l*x^5 - 128*d*l*x^5 + 288*l^2*x^5))\/(16*l^2)",
				"perm":1234,
				"e":2,
				"ap":"1\/2",
				"bp":"-1\/2",
				"xt_derivs":[
					1,
					2
				]
			},
			{
				"coefficient":"((-2 + d)^4*(-1 + 4*t - 4*x - 4*x^2)*(-22*d + 6*d^2 - 22*l + d*l - 5*l^2 + 32*t + 48*d*t - 18*d^2*t + 80*l*t - 12*d*l*t + 14*l^2*t - 128*t^2 + 160*d*t^2 - 24*d^2*t^2 + 32*l*t^2 + 32*d*l*t^2 + 24*l^2*t^2 + 48*x - 72*d*x + 8*d^2*x - 24*l*x - 20*d*l*x - 16*l^2*x - 832*t*x + 800*d*t*x - 120*d^2*t*x - 32*l*t*x + 160*d*l*t*x + 72*l^2*t*x - 96*x^2 + 96*d*x^2 - 48*d^2*x^2 - 48*d*l*x^2 - 24*l^2*x^2 - 2304*t*x^2 + 1152*d*t*x^2 - 168*d^2*t*x^2 - 1152*l*t*x^2 + 240*d*l*t*x^2 - 168*l^2*t*x^2 - 960*x^3 + 544*d*x^3 - 96*d^2*x^3 - 416*l*x^3 + 80*d*l*x^3 - 64*l^2*x^3 - 1152*x^4 + 480*d*x^4 - 32*d^2*x^4 - 672*l*x^4 + 176*d*l*x^4 - 80*l^2*x^4))\/(16*l^2)",
				"perm":1234,
				"e":2,
				"ap":"1\/2",
				"bp":"-1\/2",
				"xt_derivs":[
					2,
					0
				]
			},
			{
				"coefficient":"-((-2 + d)^4*(-1 + 4*t - 4*x - 4*x^2)*(4 - 4*d + d^2 - 16*t + 24*d*t - 8*d^2*t + 8*l*t - 4*d*l*t - 64*t^2 + 16*d^2*t^2 - 64*l*t^2 + 32*d*l*t^2 + 256*t^3 - 128*d*t^3 + 128*l*t^3 - 64*d*l*t^3 + 16*x - 16*d*x + 4*d^2*x - 512*t*x + 320*d*t*x - 56*d^2*t*x - 192*l*t*x + 48*d*l*t*x - 24*l^2*t*x + 1792*t^2*x - 1024*d*t^2*x + 160*d^2*t^2*x + 768*l*t^2*x - 192*d*l*t^2*x + 96*l^2*t^2*x - 16*x^2 + 16*d*x^2 - 4*d^2*x^2 - 384*t*x^2 + 320*d*t*x^2 - 16*d^2*t*x^2 - 64*l*t*x^2 + 128*d*l*t*x^2 + 48*l^2*t*x^2 + 5888*t^2*x^2 - 3072*d*t^2*x^2 + 256*d^2*t^2*x^2 + 2816*l*t^2*x^2 - 1024*d*l*t^2*x^2 + 192*l^2*t^2*x^2 - 128*x^3 + 128*d*x^3 - 32*d^2*x^3 + 4096*t*x^3 - 1792*d*t*x^3 + 352*d^2*t*x^3 + 2304*l*t*x^3 - 192*d*l*t*x^3 + 480*l^2*t*x^3 - 64*x^4 + 64*d*x^4 - 16*d^2*x^4 + 5888*t*x^4 - 2688*d*t*x^4 + 448*d^2*t*x^4 + 3200*l*t*x^4 - 448*d*l*t*x^4 + 576*l^2*t*x^4 + 256*x^5 - 256*d*x^5 + 64*d^2*x^5 + 256*x^6 - 256*d*x^6 + 64*d^2*x^6))\/(32*l^2)",
				"perm":1234,
				"e":2,
				"ap":"1\/2",
				"bp":"-1\/2",
				"xt_derivs":[
					2,
					1
				]
			},
			{
				"coefficient":"((-2 + d)^4*(-1 + 4*t - 4*x - 4*x^2)*(4*d - d^2 + 4*l + l^2 - 32*d*t + 8*d^2*t - 32*l*t - 8*l^2*t + 64*d*t^2 - 16*d^2*t^2 + 64*l*t^2 + 16*l^2*t^2 + 32*x - 8*d*x + 2*d^2*x + 24*l*x + 6*l^2*x - 64*d*t*x - 64*l*t*x - 32*d*l*t*x - 32*l^2*t*x - 512*t^2*x + 384*d*t^2*x - 32*d^2*t^2*x - 128*l*t^2*x + 128*d*l*t^2*x + 32*l^2*t^2*x + 128*x^2 - 96*d*x^2 + 24*d^2*x^2 + 32*l*x^2 + 8*l^2*x^2 - 1536*t*x^2 + 640*d*t*x^2 - 96*d^2*t*x^2 - 896*l*t*x^2 + 128*d*l*t*x^2 - 160*l^2*t*x^2 - 64*d*x^3 + 16*d^2*x^3 - 64*l*x^3 - 16*l^2*x^3 - 3072*t*x^3 + 1280*d*t*x^3 - 128*d^2*t*x^3 - 1792*l*t*x^3 + 384*d*l*t*x^3 - 256*l^2*t*x^3 - 512*x^4 + 320*d*x^4 - 80*d^2*x^4 - 192*l*x^4 - 48*l^2*x^4 - 512*x^5 + 384*d*x^5 - 96*d^2*x^5 - 128*l*x^5 - 32*l^2*x^5))\/(64*l^2)",
				"perm":1234,
				"e":2,
				"ap":"1\/2",
				"bp":"-1\/2",
				"xt_derivs":[
					3,
					0
				]
			}
		]
	}
}