{
	"dimension_var":"d",
	"spin_var":"l",
	"x_var":"x",
	"t_var":"t",
	"spurious_poles":[
		"-l",
		"-l",
		"6+l",
		"6+l"
	],
	"spurious_poles_L":[
		{
			"L":0,
			"poles":[
				"-l",
				"6+l",
				"6+l"
			]
		}
	],
	"poles":[],
	"poles_L":[
		{
			"L":0,
			"poles":[
				"-l"
			]
		}
	],
	"p":4,
	"type":"primal",
	"seed_type":"primal",
	"lambda_shift":8,
	"description":[],
	"exported_blocks":[
		"blockP4SpinEvenStructure4"
	],
	"blockP4SpinEvenStructure4":{
		"zPower":"-5",
		"one_minus_zPower":"0",
		"h_infinity_order":0,
		"value":[
			{
				"coefficient":"-((-1 + 4*t - 4*x - 4*x^2)^2*(7 - 56*t + 112*t^2 - 20*x - 304*t*x - 96*x^2 - 384*t*x^2 + 80*x^3 + 272*x^4))\/12",
				"perm":1234,
				"e":0,
				"ap":"1",
				"bp":"-1",
				"xt_derivs":[
					0,
					0
				]
			},
			{
				"coefficient":"((-1 + 4*t - 4*x - 4*x^2)^2*(-81 - 444*t + 2832*t^2 + 960*t^3 - 424*x - 1600*t*x + 7040*t^2*x - 276*x^2 - 1504*t*x^2 + 2752*t^2*x^2 + 1792*x^3 - 1024*t*x^3 + 2896*x^4 - 1728*t*x^4 - 384*x^5 - 1984*x^6))\/192",
				"perm":1234,
				"e":0,
				"ap":"1",
				"bp":"-1",
				"xt_derivs":[
					0,
					1
				]
			},
			{
				"coefficient":"((-1 + 4*t - 4*x - 4*x^2)^3*(-11 + 384*t + 848*t^2 + 3456*t^3 - 44*x + 3424*t*x + 6720*t^2*x + 44*x^2 + 7936*t*x^2 + 2880*t^2*x^2 + 352*x^3 + 2944*t*x^3 + 176*x^4 - 4608*t*x^4 - 704*x^5 - 704*x^6))\/768",
				"perm":1234,
				"e":0,
				"ap":"1",
				"bp":"-1",
				"xt_derivs":[
					0,
					2
				]
			},
			{
				"coefficient":"(t*(-1 + 4*t - 4*x - 4*x^2)^3*(-5 + 44*t - 112*t^2 + 64*t^3 - 20*x + 328*t*x - 224*t^2*x + 20*x^2 + 848*t*x^2 + 160*x^3 + 864*t*x^3 + 80*x^4 + 256*t*x^4 - 320*x^5 - 320*x^6))\/96",
				"perm":1234,
				"e":0,
				"ap":"1",
				"bp":"-1",
				"xt_derivs":[
					0,
					3
				]
			},
			{
				"coefficient":"-(t^2*(1 + 2*x)^2*(-1 + 4*t - 4*x - 4*x^2)^4*(-1 + 4*t + 4*x - 4*x^2))\/64",
				"perm":1234,
				"e":0,
				"ap":"1",
				"bp":"-1",
				"xt_derivs":[
					0,
					4
				]
			},
			{
				"coefficient":"((-1 + 4*t - 4*x - 4*x^2)^2*(-35 + 88*t + 208*t^2 - 120*x + 368*t*x + 448*t^2*x + 80*x^2 + 320*t*x^2 + 560*x^3 - 128*t*x^3 + 240*x^4 - 320*x^5))\/48",
				"perm":1234,
				"e":0,
				"ap":"1",
				"bp":"-1",
				"xt_derivs":[
					1,
					0
				]
			},
			{
				"coefficient":"((-1 + 4*t - 4*x - 4*x^2)^3*(-5 + 168*t + 2480*t^2 + 50*x + 2016*t*x + 3936*t^2*x + 280*x^2 + 2208*t*x^2 + 80*x^3 - 2304*t*x^3 - 1040*x^4 - 1120*x^5))\/384",
				"perm":1234,
				"e":0,
				"ap":"1",
				"bp":"-1",
				"xt_derivs":[
					1,
					1
				]
			},
			{
				"coefficient":"(t*(-1 + 4*t - 4*x - 4*x^2)^3*(-9 + 24*t + 48*t^2 - 8*x + 376*t*x + 160*t^2*x + 112*x^2 + 800*t*x^2 + 144*x^3 + 288*t*x^3 - 304*x^4 - 448*x^5))\/96",
				"perm":1234,
				"e":0,
				"ap":"1",
				"bp":"-1",
				"xt_derivs":[
					1,
					2
				]
			},
			{
				"coefficient":"-(t^2*(1 + 2*x)*(-1 + 4*t - 4*x - 4*x^2)^4*(-1 + 4*t + 4*x - 4*x^2))\/32",
				"perm":1234,
				"e":0,
				"ap":"1",
				"bp":"-1",
				"xt_derivs":[
					1,
					3
				]
			},
			{
				"coefficient":"((-1 + 4*t - 4*x - 4*x^2)^3*(-19 + 336*t + 496*t^2 + 60*x + 880*t*x + 272*x^2 + 416*t*x^2 - 240*x^3 - 784*x^4))\/384",
				"perm":1234,
				"e":0,
				"ap":"1",
				"bp":"-1",
				"xt_derivs":[
					2,
					0
				]
			},
			{
				"coefficient":"((-1 + 4*t - 4*x - 4*x^2)^3*(-3 - 120*t + 336*t^2 + 768*t^3 - 12*x - 240*t*x + 2688*t^2*x + 12*x^2 + 224*t*x^2 + 448*t^2*x^2 + 96*x^3 - 64*t*x^3 + 48*x^4 - 1024*t*x^4 - 192*x^5 - 192*x^6))\/768",
				"perm":1234,
				"e":0,
				"ap":"1",
				"bp":"-1",
				"xt_derivs":[
					2,
					1
				]
			},
			{
				"coefficient":"((-1 + 4*t - 4*x - 4*x^2)^3*(-5 - 56*t + 304*t^2 - 30*x + 480*t^2*x - 40*x^2 - 96*t*x^2 + 80*x^3 - 640*t*x^3 + 240*x^4 + 160*x^5))\/768",
				"perm":1234,
				"e":0,
				"ap":"1",
				"bp":"-1",
				"xt_derivs":[
					3,
					0
				]
			},
			{
				"coefficient":"(t*(1 + 2*x)*(-1 + 4*t - 4*x - 4*x^2)^4*(-1 + 4*t + 4*x - 4*x^2))\/128",
				"perm":1234,
				"e":0,
				"ap":"1",
				"bp":"-1",
				"xt_derivs":[
					3,
					1
				]
			},
			{
				"coefficient":"((1 + 2*x)^2*(-1 + 4*t - 4*x - 4*x^2)^4*(-1 + 4*t + 4*x - 4*x^2))\/1024",
				"perm":1234,
				"e":0,
				"ap":"1",
				"bp":"-1",
				"xt_derivs":[
					4,
					0
				]
			},
			{
				"coefficient":"-((-1 + 4*t - 4*x - 4*x^2)*(47 - 16*t - 688*t^2 + 84*x - 5936*t*x + 512*t^2*x - 416*x^2 - 12896*t*x^2 - 752*x^3 - 2176*t*x^3 + 912*x^4 + 1664*x^5))\/48",
				"perm":1234,
				"e":1,
				"ap":"1",
				"bp":"-1",
				"xt_derivs":[
					0,
					0
				]
			},
			{
				"coefficient":"-((-1 + 4*t - 4*x - 4*x^2)*(8 + 115*t - 1448*t^2 + 3440*t^3 + 38*x - 1582*t*x - 9776*t^2*x + 4384*t^3*x - 48*x^2 - 11256*t*x^2 - 20768*t^2*x^2 - 520*x^3 - 20368*t*x^3 - 14016*t^2*x^3 - 640*x^4 - 6224*t*x^4 + 1056*x^5 + 7968*t*x^5 + 2816*x^6 + 1664*x^7))\/48",
				"perm":1234,
				"e":1,
				"ap":"1",
				"bp":"-1",
				"xt_derivs":[
					0,
					1
				]
			},
			{
				"coefficient":"-((-1 + 4*t - 4*x - 4*x^2)^2*(-11 - 222*t + 2624*t^2 + 2976*t^3 - 66*x + 2820*t*x + 27904*t^2*x + 9280*t^3*x - 44*x^2 + 18992*t*x^2 + 48256*t^2*x^2 + 440*x^3 + 28512*t*x^3 + 5888*t^2*x^3 + 880*x^4 - 5856*t*x^4 - 352*x^5 - 26048*t*x^5 - 2112*x^6 - 1408*x^7))\/768",
				"perm":1234,
				"e":1,
				"ap":"1",
				"bp":"-1",
				"xt_derivs":[
					0,
					2
				]
			},
			{
				"coefficient":"(t*(-1 + 4*t - 4*x - 4*x^2)^2*(5 - 35*t + 64*t^2 - 16*t^3 + 30*x - 398*t*x + 592*t^2*x + 160*t^3*x + 20*x^2 - 1576*t*x^2 + 640*t^2*x^2 - 200*x^3 - 2704*t*x^3 - 576*t^2*x^3 - 400*x^4 - 1840*t*x^4 + 160*x^5 - 224*t*x^5 + 960*x^6 + 640*x^7))\/96",
				"perm":1234,
				"e":1,
				"ap":"1",
				"bp":"-1",
				"xt_derivs":[
					0,
					3
				]
			},
			{
				"coefficient":"-(t^2*(1 + 2*x)*(-1 + 2*t - 4*x - 4*x^2)*(-1 + 4*t - 4*x - 4*x^2)^3*(-1 + 4*t + 4*x - 4*x^2))\/64",
				"perm":1234,
				"e":1,
				"ap":"1",
				"bp":"-1",
				"xt_derivs":[
					0,
					4
				]
			},
			{
				"coefficient":"-((-1 + 4*t - 4*x - 4*x^2)*(63 - 124*t - 1456*t^2 + 3776*t^3 + 292*x - 8800*t*x - 22464*t^2*x - 12*x^2 - 31456*t*x^2 - 15552*t^2*x^2 - 1696*x^3 - 24192*t*x^3 - 1648*x^4 + 9024*t*x^4 + 2112*x^5 + 2752*x^6))\/192",
				"perm":1234,
				"e":1,
				"ap":"1",
				"bp":"-1",
				"xt_derivs":[
					1,
					0
				]
			},
			{
				"coefficient":"-((-1 + 4*t - 4*x - 4*x^2)^2*(1 + 138*t + 1328*t^2 + 1632*t^3 + 64*x + 2984*t*x + 9632*t^2*x + 356*x^2 + 8256*t*x^2 + 2176*t^2*x^2 + 448*x^3 + 1632*t*x^3 - 976*x^4 - 8096*t*x^4 - 2816*x^5 - 1856*x^6))\/384",
				"perm":1234,
				"e":1,
				"ap":"1",
				"bp":"-1",
				"xt_derivs":[
					1,
					1
				]
			},
			{
				"coefficient":"-(t*(-1 + 4*t - 4*x - 4*x^2)^2*(-9 + 36*t - 24*t^2 + 96*t^3 - 26*x + 412*t*x - 176*t^2*x + 96*x^2 + 1432*t*x^2 - 64*t^2*x^2 + 368*x^3 + 1936*t*x^3 - 16*x^4 + 864*t*x^4 - 1056*x^5 - 896*x^6))\/96",
				"perm":1234,
				"e":1,
				"ap":"1",
				"bp":"-1",
				"xt_derivs":[
					1,
					2
				]
			},
			{
				"coefficient":"-(t^2*(-1 + 2*t - 4*x - 4*x^2)*(-1 + 4*t - 4*x - 4*x^2)^3*(-1 + 4*t + 4*x - 4*x^2))\/32",
				"perm":1234,
				"e":1,
				"ap":"1",
				"bp":"-1",
				"xt_derivs":[
					1,
					3
				]
			},
			{
				"coefficient":"((-1 + 4*t - 4*x - 4*x^2)^2*(-35 - 60*t - 352*t^2 - 190*x - 40*t*x + 64*t^2*x - 200*x^2 + 496*t*x^2 + 560*x^3 + 672*t*x^3 + 1360*x^4 + 800*x^5))\/384",
				"perm":1234,
				"e":1,
				"ap":"1",
				"bp":"-1",
				"xt_derivs":[
					2,
					0
				]
			},
			{
				"coefficient":"-((-1 + 4*t - 4*x - 4*x^2)^2*(-3 - 108*t + 480*t^2 - 18*x - 456*t*x + 3360*t^2*x + 384*t^3*x - 12*x^2 - 352*t*x^2 + 5632*t^2*x^2 + 120*x^3 + 192*t*x^3 + 1664*t^2*x^3 + 240*x^4 - 960*t*x^4 - 96*x^5 - 1664*t*x^5 - 576*x^6 - 384*x^7))\/768",
				"perm":1234,
				"e":1,
				"ap":"1",
				"bp":"-1",
				"xt_derivs":[
					2,
					1
				]
			},
			{
				"coefficient":"((-1 + 4*t - 4*x - 4*x^2)^2*(11 - 10*t - 208*t^2 + 288*t^3 + 64*x - 104*t*x - 800*t^2*x + 76*x^2 - 192*t*x^2 - 768*t^2*x^2 - 192*x^3 + 160*t*x^3 - 496*x^4 + 416*t*x^4 - 256*x^5 + 64*x^6))\/768",
				"perm":1234,
				"e":1,
				"ap":"1",
				"bp":"-1",
				"xt_derivs":[
					3,
					0
				]
			},
			{
				"coefficient":"(t*(-1 + 2*t - 4*x - 4*x^2)*(-1 + 4*t - 4*x - 4*x^2)^3*(-1 + 4*t + 4*x - 4*x^2))\/128",
				"perm":1234,
				"e":1,
				"ap":"1",
				"bp":"-1",
				"xt_derivs":[
					3,
					1
				]
			},
			{
				"coefficient":"((1 + 2*x)*(-1 + 2*t - 4*x - 4*x^2)*(-1 + 4*t - 4*x - 4*x^2)^3*(-1 + 4*t + 4*x - 4*x^2))\/1024",
				"perm":1234,
				"e":1,
				"ap":"1",
				"bp":"-1",
				"xt_derivs":[
					4,
					0
				]
			},
			{
				"coefficient":"-((-1 + 4*t - 4*x - 4*x^2)*(-99 + 368*t + 112*t^2 - 140*x + 6288*t*x + 512*x^2 + 864*t*x^2 + 560*x^3 - 464*x^4))\/36",
				"perm":1234,
				"e":2,
				"ap":"1",
				"bp":"-1",
				"xt_derivs":[
					0,
					0
				]
			},
			{
				"coefficient":"-((-1 + 4*t - 4*x - 4*x^2)*(251 + 876*t - 7664*t^2 + 576*t^3 + 1064*x - 25088*t*x - 88192*t^2*x - 644*x^2 - 104736*t*x^2 + 26304*t^2*x^2 - 7552*x^3 - 89856*t*x^3 - 4976*x^4 + 24512*t*x^4 + 13184*x^5 + 14144*x^6))\/576",
				"perm":1234,
				"e":2,
				"ap":"1",
				"bp":"-1",
				"xt_derivs":[
					0,
					1
				]
			},
			{
				"coefficient":"-((-1 + 4*t - 4*x - 4*x^2)*(33 + 1420*t - 22704*t^2 + 57920*t^3 + 32256*t^4 + 264*x - 3632*t*x - 127488*t^2*x + 362752*t^3*x + 528*x^2 - 74032*t*x^2 - 295552*t^2*x^2 + 133376*t^3*x^2 - 1056*x^3 - 219776*t*x^3 - 378880*t^2*x^3 - 5280*x^4 - 173248*t*x^4 - 232192*t^2*x^4 - 4224*x^5 + 138496*t*x^5 + 8448*x^6 + 189184*t*x^6 + 16896*x^7 + 8448*x^8))\/2304",
				"perm":1234,
				"e":2,
				"ap":"1",
				"bp":"-1",
				"xt_derivs":[
					0,
					2
				]
			},
			{
				"coefficient":"(t*(-1 + 4*t - 4*x - 4*x^2)^2*(15 - 44*t - 288*t^2 + 896*t^3 + 60*x - 984*t*x + 352*t^2*x - 60*x^2 - 3248*t*x^2 - 1984*t^2*x^2 - 480*x^3 - 2592*t*x^3 - 240*x^4 + 640*t*x^4 + 960*x^5 + 960*x^6))\/288",
				"perm":1234,
				"e":2,
				"ap":"1",
				"bp":"-1",
				"xt_derivs":[
					0,
					3
				]
			},
			{
				"coefficient":"(t^2*(1 + 2*x)^2*(-1 + 4*t - 4*x - 4*x^2)^3*(-1 + 4*t + 4*x - 4*x^2))\/64",
				"perm":1234,
				"e":2,
				"ap":"1",
				"bp":"-1",
				"xt_derivs":[
					0,
					4
				]
			},
			{
				"coefficient":"-((-1 + 4*t - 4*x - 4*x^2)*(221 - 688*t - 784*t^2 + 712*x - 12432*t*x + 1344*t^2*x - 688*x^2 - 21088*t*x^2 - 3536*x^3 + 2048*t*x^3 - 784*x^4 + 2752*x^5))\/144",
				"perm":1234,
				"e":2,
				"ap":"1",
				"bp":"-1",
				"xt_derivs":[
					1,
					0
				]
			},
			{
				"coefficient":"-((-1 + 4*t - 4*x - 4*x^2)*(-21 - 572*t - 6192*t^2 + 35264*t^3 - 306*x - 11768*t*x - 10464*t^2*x + 61312*t^3*x - 1524*x^2 - 49632*t*x^2 - 27456*t^2*x^2 - 2760*x^3 - 61120*t*x^3 - 62592*t^2*x^3 + 1680*x^4 + 20288*t*x^4 + 13728*x^5 + 57984*t*x^5 + 19008*x^6 + 8832*x^7))\/1152",
				"perm":1234,
				"e":2,
				"ap":"1",
				"bp":"-1",
				"xt_derivs":[
					1,
					1
				]
			},
			{
				"coefficient":"-(t*(-1 + 4*t - 4*x - 4*x^2)^2*(-27 + 12*t + 384*t^2 - 24*x + 1280*t*x + 832*t^2*x + 336*x^2 + 2640*t*x^2 + 432*x^3 + 256*t*x^3 - 912*x^4 - 1344*x^5))\/288",
				"perm":1234,
				"e":2,
				"ap":"1",
				"bp":"-1",
				"xt_derivs":[
					1,
					2
				]
			},
			{
				"coefficient":"(t^2*(1 + 2*x)*(-1 + 4*t - 4*x - 4*x^2)^3*(-1 + 4*t + 4*x - 4*x^2))\/32",
				"perm":1234,
				"e":2,
				"ap":"1",
				"bp":"-1",
				"xt_derivs":[
					1,
					3
				]
			},
			{
				"coefficient":"-((-1 + 4*t - 4*x - 4*x^2)*(-273 + 1004*t - 816*t^2 + 4672*t^3 - 1632*x + 4800*t*x - 16640*t^2*x - 2148*x^2 + 10464*t*x^2 - 1344*t^2*x^2 + 4416*x^3 + 16384*t*x^3 + 13008*x^4 + 13248*t*x^4 + 8448*x^5 - 192*x^6))\/1152",
				"perm":1234,
				"e":2,
				"ap":"1",
				"bp":"-1",
				"xt_derivs":[
					2,
					0
				]
			},
			{
				"coefficient":"-((-1 + 4*t - 4*x - 4*x^2)^2*(-9 - 408*t + 912*t^2 + 3456*t^3 - 36*x - 720*t*x + 9984*t^2*x + 36*x^2 + 1056*t*x^2 + 1984*t^2*x^2 + 288*x^3 - 192*t*x^3 + 144*x^4 - 3840*t*x^4 - 576*x^5 - 576*x^6))\/2304",
				"perm":1234,
				"e":2,
				"ap":"1",
				"bp":"-1",
				"xt_derivs":[
					2,
					1
				]
			},
			{
				"coefficient":"-((-1 + 4*t - 4*x - 4*x^2)^2*(-51 + 80*t + 496*t^2 - 162*x + 592*t*x + 864*t^2*x + 168*x^2 + 1024*t*x^2 + 816*x^3 + 320*t*x^3 + 144*x^4 - 672*x^5))\/2304",
				"perm":1234,
				"e":2,
				"ap":"1",
				"bp":"-1",
				"xt_derivs":[
					3,
					0
				]
			},
			{
				"coefficient":"-(t*(1 + 2*x)*(-1 + 4*t - 4*x - 4*x^2)^3*(-1 + 4*t + 4*x - 4*x^2))\/128",
				"perm":1234,
				"e":2,
				"ap":"1",
				"bp":"-1",
				"xt_derivs":[
					3,
					1
				]
			},
			{
				"coefficient":"-((1 + 2*x)^2*(-1 + 4*t - 4*x - 4*x^2)^3*(-1 + 4*t + 4*x - 4*x^2))\/1024",
				"perm":1234,
				"e":2,
				"ap":"1",
				"bp":"-1",
				"xt_derivs":[
					4,
					0
				]
			},
			{
				"coefficient":"(-75*(-1 + 4*t - 4*x - 4*x^2)*(-1 + 4*t + 4*x^2))\/16",
				"perm":1234,
				"e":3,
				"ap":"1",
				"bp":"-1",
				"xt_derivs":[
					0,
					0
				]
			},
			{
				"coefficient":"(37 + 1010*t - 6016*t^2 + 5536*t^3 + 262*x - 524*t*x - 47808*t^2*x - 1472*t^3*x + 468*x^2 - 24432*t*x^2 - 83712*t^2*x^2 - 680*x^3 - 53216*t*x^3 - 24320*t^2*x^3 - 2960*x^4 - 17248*t*x^4 - 2016*x^5 + 23616*t*x^5 + 1984*x^6 + 2176*x^7)\/96",
				"perm":1234,
				"e":3,
				"ap":"1",
				"bp":"-1",
				"xt_derivs":[
					0,
					1
				]
			},
			{
				"coefficient":"((-1 + 4*t - 4*x - 4*x^2)*(-11 - 414*t + 4064*t^2 + 3360*t^3 - 66*x + 2116*t*x + 42048*t^2*x + 14656*t^3*x - 44*x^2 + 19248*t*x^2 + 66048*t^2*x^2 + 440*x^3 + 31584*t*x^3 - 3584*t^2*x^3 + 880*x^4 - 3808*t*x^4 - 352*x^5 - 27072*t*x^5 - 2112*x^6 - 1408*x^7))\/768",
				"perm":1234,
				"e":3,
				"ap":"1",
				"bp":"-1",
				"xt_derivs":[
					0,
					2
				]
			},
			{
				"coefficient":"-(t*(-1 + 4*t - 4*x - 4*x^2)*(5 - 23*t - 8*t^2 + 80*t^3 + 30*x - 374*t*x + 352*t^2*x + 352*t^3*x + 20*x^2 - 1672*t*x^2 + 160*t^2*x^2 - 200*x^3 - 2896*t*x^3 - 1152*t^2*x^3 - 400*x^4 - 1648*t*x^4 + 160*x^5 + 160*t*x^5 + 960*x^6 + 640*x^7))\/96",
				"perm":1234,
				"e":3,
				"ap":"1",
				"bp":"-1",
				"xt_derivs":[
					0,
					3
				]
			},
			{
				"coefficient":"(t^2*(1 + 2*x)*(-1 + 2*t - 4*x - 4*x^2)*(-1 + 4*t - 4*x - 4*x^2)^2*(-1 + 4*t + 4*x - 4*x^2))\/64",
				"perm":1234,
				"e":3,
				"ap":"1",
				"bp":"-1",
				"xt_derivs":[
					0,
					4
				]
			},
			{
				"coefficient":"(495 - 1780*t - 304*t^2 - 1984*t^3 + 2740*x - 23168*t*x - 37184*t^2*x + 2580*x^2 - 69216*t*x^2 - 13760*t^2*x^2 - 9760*x^3 - 55808*t*x^3 - 20080*x^4 + 8384*t*x^4 - 4800*x^5 + 7360*x^6)\/192",
				"perm":1234,
				"e":3,
				"ap":"1",
				"bp":"-1",
				"xt_derivs":[
					1,
					0
				]
			},
			{
				"coefficient":"((-1 + 4*t - 4*x - 4*x^2)*(13 + 546*t + 32*t^2 + 2592*t^3 + 112*x + 4264*t*x + 8928*t^2*x + 308*x^2 + 8576*t*x^2 - 2496*t^2*x^2 + 64*x^3 + 608*t*x^3 - 1168*x^4 - 7712*t*x^4 - 2048*x^5 - 1088*x^6))\/384",
				"perm":1234,
				"e":3,
				"ap":"1",
				"bp":"-1",
				"xt_derivs":[
					1,
					1
				]
			},
			{
				"coefficient":"-(t*(-1 + 4*t - 4*x - 4*x^2)*(9 - 192*t^2 + 192*t^3 + 26*x - 412*t*x - 112*t^2*x - 96*x^2 - 1720*t*x^2 - 800*t^2*x^2 - 368*x^3 - 1936*t*x^3 + 16*x^4 - 288*t*x^4 + 1056*x^5 + 896*x^6))\/96",
				"perm":1234,
				"e":3,
				"ap":"1",
				"bp":"-1",
				"xt_derivs":[
					1,
					2
				]
			},
			{
				"coefficient":"(t^2*(-1 + 2*t - 4*x - 4*x^2)*(-1 + 4*t - 4*x - 4*x^2)^2*(-1 + 4*t + 4*x - 4*x^2))\/32",
				"perm":1234,
				"e":3,
				"ap":"1",
				"bp":"-1",
				"xt_derivs":[
					1,
					3
				]
			},
			{
				"coefficient":"-((-1 + 4*t - 4*x - 4*x^2)*(-149 + 300*t - 352*t^2 - 538*x + 1592*t*x + 256*t^2*x + 232*x^2 + 3408*t*x^2 + 2384*x^3 + 2848*t*x^3 + 1456*x^4 - 928*x^5))\/384",
				"perm":1234,
				"e":3,
				"ap":"1",
				"bp":"-1",
				"xt_derivs":[
					2,
					0
				]
			},
			{
				"coefficient":"-((-1 + 4*t - 4*x - 4*x^2)*(3 + 180*t - 912*t^2 + 576*t^3 + 18*x + 600*t*x - 4800*t^2*x + 768*t^3*x + 12*x^2 - 224*t*x^2 - 8512*t^2*x^2 - 120*x^3 - 1344*t*x^3 - 5120*t^2*x^3 - 240*x^4 + 2112*t*x^4 + 96*x^5 + 3968*t*x^5 + 576*x^6 + 384*x^7))\/768",
				"perm":1234,
				"e":3,
				"ap":"1",
				"bp":"-1",
				"xt_derivs":[
					2,
					1
				]
			},
			{
				"coefficient":"-((-1 + 4*t - 4*x - 4*x^2)*(23 - 106*t + 32*t^2 + 96*t^3 + 112*x - 488*t*x - 224*t^2*x + 28*x^2 - 960*t*x^2 + 192*t^2*x^2 - 576*x^3 - 1376*t*x^3 - 688*x^4 - 1120*t*x^4 + 512*x^5 + 832*x^6))\/768",
				"perm":1234,
				"e":3,
				"ap":"1",
				"bp":"-1",
				"xt_derivs":[
					3,
					0
				]
			},
			{
				"coefficient":"-(t*(-1 + 2*t - 4*x - 4*x^2)*(-1 + 4*t - 4*x - 4*x^2)^2*(-1 + 4*t + 4*x - 4*x^2))\/128",
				"perm":1234,
				"e":3,
				"ap":"1",
				"bp":"-1",
				"xt_derivs":[
					3,
					1
				]
			},
			{
				"coefficient":"-((1 + 2*x)*(-1 + 2*t - 4*x - 4*x^2)*(-1 + 4*t - 4*x - 4*x^2)^2*(-1 + 4*t + 4*x - 4*x^2))\/1024",
				"perm":1234,
				"e":3,
				"ap":"1",
				"bp":"-1",
				"xt_derivs":[
					4,
					0
				]
			},
			{
				"coefficient":"-((-49 + 4*t - 100*x - 4*x^2)*(-1 + 4*t + 4*x^2))\/6",
				"perm":1234,
				"e":4,
				"ap":"1",
				"bp":"-1",
				"xt_derivs":[
					0,
					0
				]
			},
			{
				"coefficient":"(3 + 2244*t - 8880*t^2 - 576*t^3 + 152*x + 2752*t*x - 25728*t^2*x + 828*x^2 - 14304*t*x^2 - 1600*t^2*x^2 + 1024*x^3 - 18432*t*x^3 - 2288*x^4 + 6464*t*x^4 - 6528*x^5 - 4288*x^6)\/192",
				"perm":1234,
				"e":4,
				"ap":"1",
				"bp":"-1",
				"xt_derivs":[
					0,
					1
				]
			},
			{
				"coefficient":"((-1 + 4*t - 4*x - 4*x^2)*(-11 + 6224*t^2 + 384*t^3 - 44*x + 2784*t*x + 18496*t^2*x + 44*x^2 + 9728*t*x^2 + 4928*t^2*x^2 + 352*x^3 + 5504*t*x^3 + 176*x^4 - 5632*t*x^4 - 704*x^5 - 704*x^6))\/768",
				"perm":1234,
				"e":4,
				"ap":"1",
				"bp":"-1",
				"xt_derivs":[
					0,
					2
				]
			},
			{
				"coefficient":"(t*(-1 + 4*t - 4*x - 4*x^2)*(-5 + 20*t - 16*t^2 + 64*t^3 - 20*x + 328*t*x + 160*t^2*x + 20*x^2 + 1040*t*x^2 + 384*t^2*x^2 + 160*x^3 + 864*t*x^3 + 80*x^4 - 128*t*x^4 - 320*x^5 - 320*x^6))\/96",
				"perm":1234,
				"e":4,
				"ap":"1",
				"bp":"-1",
				"xt_derivs":[
					0,
					3
				]
			},
			{
				"coefficient":"-(t^2*(1 + 2*x)^2*(-1 + 4*t - 4*x - 4*x^2)^2*(-1 + 4*t + 4*x - 4*x^2))\/64",
				"perm":1234,
				"e":4,
				"ap":"1",
				"bp":"-1",
				"xt_derivs":[
					0,
					4
				]
			},
			{
				"coefficient":"((-1 + 4*t + 4*x^2)*(-151 - 164*t - 612*x + 32*t*x - 636*x^2 - 32*x^3))\/48",
				"perm":1234,
				"e":4,
				"ap":"1",
				"bp":"-1",
				"xt_derivs":[
					1,
					0
				]
			},
			{
				"coefficient":"-((-1 + 4*t - 4*x - 4*x^2)*(-19 - 1368*t - 368*t^2 - 98*x - 2176*t*x + 1312*t^2*x - 88*x^2 + 544*t*x^2 + 304*x^3 - 1152*t*x^3 + 656*x^4 + 352*x^5))\/384",
				"perm":1234,
				"e":4,
				"ap":"1",
				"bp":"-1",
				"xt_derivs":[
					1,
					1
				]
			},
			{
				"coefficient":"(t*(-1 + 4*t - 4*x - 4*x^2)*(-9 - 48*t + 336*t^2 - 8*x + 520*t*x + 736*t^2*x + 112*x^2 + 1088*t*x^2 + 144*x^3 - 288*t*x^3 - 304*x^4 - 448*x^5))\/96",
				"perm":1234,
				"e":4,
				"ap":"1",
				"bp":"-1",
				"xt_derivs":[
					1,
					2
				]
			},
			{
				"coefficient":"-(t^2*(1 + 2*x)*(-1 + 4*t - 4*x - 4*x^2)^2*(-1 + 4*t + 4*x - 4*x^2))\/32",
				"perm":1234,
				"e":4,
				"ap":"1",
				"bp":"-1",
				"xt_derivs":[
					1,
					3
				]
			},
			{
				"coefficient":"-((-1 + 4*t - 4*x - 4*x^2)*(-209 + 272*t^2 - 300*x + 2192*t*x + 1072*x^2 + 800*t*x^2 + 1200*x^3 - 944*x^4))\/384",
				"perm":1234,
				"e":4,
				"ap":"1",
				"bp":"-1",
				"xt_derivs":[
					2,
					0
				]
			},
			{
				"coefficient":"((-1 + 4*t - 4*x - 4*x^2)*(-3 - 264*t + 912*t^2 + 768*t^3 - 12*x - 240*t*x + 4992*t^2*x + 12*x^2 + 1376*t*x^2 + 2752*t^2*x^2 + 96*x^3 - 64*t*x^3 + 48*x^4 - 3328*t*x^4 - 192*x^5 - 192*x^6))\/768",
				"perm":1234,
				"e":4,
				"ap":"1",
				"bp":"-1",
				"xt_derivs":[
					2,
					1
				]
			},
			{
				"coefficient":"((-1 + 4*t - 4*x - 4*x^2)*(-29 + 88*t + 112*t^2 - 78*x + 480*t*x + 96*t^2*x + 152*x^2 + 864*t*x^2 + 464*x^3 + 512*t*x^3 - 144*x^4 - 608*x^5))\/768",
				"perm":1234,
				"e":4,
				"ap":"1",
				"bp":"-1",
				"xt_derivs":[
					3,
					0
				]
			},
			{
				"coefficient":"(t*(1 + 2*x)*(-1 + 4*t - 4*x - 4*x^2)^2*(-1 + 4*t + 4*x - 4*x^2))\/128",
				"perm":1234,
				"e":4,
				"ap":"1",
				"bp":"-1",
				"xt_derivs":[
					3,
					1
				]
			},
			{
				"coefficient":"((1 + 2*x)^2*(-1 + 4*t - 4*x - 4*x^2)^2*(-1 + 4*t + 4*x - 4*x^2))\/1024",
				"perm":1234,
				"e":4,
				"ap":"1",
				"bp":"-1",
				"xt_derivs":[
					4,
					0
				]
			}
		]
	}
}