{
	"dimension_var":"d",
	"spin_var":"l",
	"x_var":"x",
	"t_var":"t",
	"spurious_poles":[
		"0",
		"0"
	],
	"spurious_poles_L":[],
	"poles":[],
	"poles_L":[],
	"p":0,
	"type":"primal",
	"seed_type":"primal",
	"lambda_shift":6,
	"description":[],
	"exported_blocks":[
		"blockP0Spin0Structure2"
	],
	"blockP0Spin0Structure2":{
		"zPower":"-4",
		"one_minus_zPower":"0",
		"h_infinity_order":2,
		"value":[
			{
				"coefficient":"-((-4 + d)^2*d^2*(1 + 4*t + 4*x + 4*x^2))\/2",
				"perm":1234,
				"e":0,
				"ap":"0",
				"bp":"0",
				"xt_derivs":[
					0,
					0
				]
			},
			{
				"coefficient":"((-1 + 4*t - 4*x - 4*x^2)*(-3 + 12*d - 3*d^2 + 16*d*t - 4*d^2*t + 48*t^2 - 8*x + 24*d*x - 6*d^2*x - 64*t*x - 32*d*t*x + 8*d^2*t*x + 24*x^2 - 48*d*x^2 + 12*d^2*x^2 - 128*t*x^2 + 96*x^3 - 96*d*x^3 + 24*d^2*x^3 + 80*x^4))\/16",
				"perm":1234,
				"e":0,
				"ap":"0",
				"bp":"0",
				"xt_derivs":[
					0,
					1
				]
			},
			{
				"coefficient":"((-1 + 4*t - 4*x - 4*x^2)^2*(-1 + 28*t - 32*d*t + 8*d^2*t + 32*t^2 - 112*t*x + 64*d*t*x - 16*d^2*t*x + 8*x^2 - 16*t*x^2 - 16*x^4))\/64",
				"perm":1234,
				"e":0,
				"ap":"0",
				"bp":"0",
				"xt_derivs":[
					0,
					2
				]
			},
			{
				"coefficient":"(t*(-1 + 2*x)^2*(-1 + 4*t - 4*x - 4*x^2)^3)\/32",
				"perm":1234,
				"e":0,
				"ap":"0",
				"bp":"0",
				"xt_derivs":[
					0,
					3
				]
			},
			{
				"coefficient":"-((1 + 2*x)*(-1 + 4*t - 4*x - 4*x^2)*(-1 + 8*d - 2*d^2 + 4*t - 4*x + 16*d*x - 4*d^2*x - 4*x^2))\/8",
				"perm":1234,
				"e":0,
				"ap":"0",
				"bp":"0",
				"xt_derivs":[
					1,
					0
				]
			},
			{
				"coefficient":"((-1 + 4*t - 4*x - 4*x^2)^2*(1 - 68*t + 64*d*t - 16*d^2*t + 18*x + 72*t*x - 4*x^2 - 72*x^3))\/64",
				"perm":1234,
				"e":0,
				"ap":"0",
				"bp":"0",
				"xt_derivs":[
					1,
					1
				]
			},
			{
				"coefficient":"(3*t*(-1 + 2*x)*(-1 + 4*t - 4*x - 4*x^2)^3)\/32",
				"perm":1234,
				"e":0,
				"ap":"0",
				"bp":"0",
				"xt_derivs":[
					1,
					2
				]
			},
			{
				"coefficient":"((1 - 4*d + d^2 + 12*t - 4*x + 8*d*x - 2*d^2*x - 12*x^2)*(-1 + 4*t - 4*x - 4*x^2)^2)\/32",
				"perm":1234,
				"e":0,
				"ap":"0",
				"bp":"0",
				"xt_derivs":[
					2,
					0
				]
			},
			{
				"coefficient":"((-1 + 4*t - 4*x - 4*x^2)^3*(1 + 8*t - 4*x + 4*x^2))\/128",
				"perm":1234,
				"e":0,
				"ap":"0",
				"bp":"0",
				"xt_derivs":[
					2,
					1
				]
			},
			{
				"coefficient":"((-1 + 2*x)*(-1 + 4*t - 4*x - 4*x^2)^3)\/128",
				"perm":1234,
				"e":0,
				"ap":"0",
				"bp":"0",
				"xt_derivs":[
					3,
					0
				]
			}
		]
	}
}