{
	"dimension_var":"d",
	"spin_var":"l",
	"x_var":"x",
	"t_var":"t",
	"spurious_poles":[
		"0",
		"0"
	],
	"spurious_poles_L":[],
	"poles":[],
	"poles_L":[],
	"p":0,
	"type":"primal",
	"seed_type":"primal",
	"lambda_shift":4,
	"description":[],
	"exported_blocks":[
		"blockP0Spin0Structure7"
	],
	"blockP0Spin0Structure7":{
		"zPower":"-4",
		"one_minus_zPower":"0",
		"h_infinity_order":2,
		"value":[
			{
				"coefficient":"-((-4 + d)^2*d^2*(-1 + 4*t - 4*x - 4*x^2))\/4",
				"perm":1234,
				"e":0,
				"ap":"0",
				"bp":"0",
				"xt_derivs":[
					0,
					0
				]
			},
			{
				"coefficient":"((-1 + 4*t - 4*x - 4*x^2)^2*(-5 + 16*d - 4*d^2 + 4*t + 12*x - 32*d*x + 8*d^2*x + 28*x^2))\/32",
				"perm":1234,
				"e":0,
				"ap":"0",
				"bp":"0",
				"xt_derivs":[
					0,
					1
				]
			},
			{
				"coefficient":"((-1 + 4*t - 4*x - 4*x^2)^2*(1 - 6*t + 8*t^2 + 8*t*x - 8*x^2 + 8*t*x^2 + 16*x^4))\/32",
				"perm":1234,
				"e":0,
				"ap":"0",
				"bp":"0",
				"xt_derivs":[
					0,
					2
				]
			},
			{
				"coefficient":"((1 - 4*d + d^2 + 2*x)*(-1 + 4*t - 4*x - 4*x^2)^2)\/8",
				"perm":1234,
				"e":0,
				"ap":"0",
				"bp":"0",
				"xt_derivs":[
					1,
					0
				]
			},
			{
				"coefficient":"((1 + 2*x)*(-1 + 4*t - 4*x - 4*x^2)^2*(-1 + 4*t - 4*x + 12*x^2))\/32",
				"perm":1234,
				"e":0,
				"ap":"0",
				"bp":"0",
				"xt_derivs":[
					1,
					1
				]
			},
			{
				"coefficient":"-((-1 + 4*t - 4*x - 20*x^2)*(-1 + 4*t - 4*x - 4*x^2)^2)\/64",
				"perm":1234,
				"e":0,
				"ap":"0",
				"bp":"0",
				"xt_derivs":[
					2,
					0
				]
			}
		]
	}
}