{
	"dimension_var":"d",
	"spin_var":"l",
	"x_var":"x",
	"t_var":"t",
	"spurious_poles":[
		"0",
		"0"
	],
	"spurious_poles_L":[],
	"poles":[],
	"poles_L":[],
	"p":0,
	"type":"primal",
	"seed_type":"primal",
	"lambda_shift":6,
	"description":[],
	"exported_blocks":[
		"blockP0Spin0Structure4"
	],
	"blockP0Spin0Structure4":{
		"zPower":"-4",
		"one_minus_zPower":"0",
		"h_infinity_order":2,
		"value":[
			{
				"coefficient":"((3 + 12*t + 4*x - 20*x^2)*(-1 + 4*t - 4*x - 4*x^2)^2)\/16",
				"perm":1234,
				"e":0,
				"ap":"0",
				"bp":"0",
				"xt_derivs":[
					0,
					1
				]
			},
			{
				"coefficient":"((-1 + 4*t - 4*x - 4*x^2)^2*(-1 + 28*t + 32*t^2 + 112*t*x + 8*x^2 - 16*t*x^2 - 16*x^4))\/64",
				"perm":1234,
				"e":0,
				"ap":"0",
				"bp":"0",
				"xt_derivs":[
					0,
					2
				]
			},
			{
				"coefficient":"(t*(1 + 2*x)^2*(-1 + 4*t - 4*x - 4*x^2)^2*(-1 + 4*t + 4*x - 4*x^2))\/32",
				"perm":1234,
				"e":0,
				"ap":"0",
				"bp":"0",
				"xt_derivs":[
					0,
					3
				]
			},
			{
				"coefficient":"-((-1 + 2*x)*(-1 + 4*t - 4*x - 4*x^2)^2)\/8",
				"perm":1234,
				"e":0,
				"ap":"0",
				"bp":"0",
				"xt_derivs":[
					1,
					0
				]
			},
			{
				"coefficient":"((-1 + 4*t - 4*x - 4*x^2)^2*(-1 + 68*t + 18*x + 72*t*x + 4*x^2 - 72*x^3))\/64",
				"perm":1234,
				"e":0,
				"ap":"0",
				"bp":"0",
				"xt_derivs":[
					1,
					1
				]
			},
			{
				"coefficient":"(3*t*(1 + 2*x)*(-1 + 4*t - 4*x - 4*x^2)^2*(-1 + 4*t + 4*x - 4*x^2))\/32",
				"perm":1234,
				"e":0,
				"ap":"0",
				"bp":"0",
				"xt_derivs":[
					1,
					2
				]
			},
			{
				"coefficient":"((1 + 12*t + 4*x - 12*x^2)*(-1 + 4*t - 4*x - 4*x^2)^2)\/32",
				"perm":1234,
				"e":0,
				"ap":"0",
				"bp":"0",
				"xt_derivs":[
					2,
					0
				]
			},
			{
				"coefficient":"((-1 + 4*t - 4*x - 4*x^2)^2*(-1 + 4*t + 4*x - 4*x^2)*(1 + 8*t + 4*x + 4*x^2))\/128",
				"perm":1234,
				"e":0,
				"ap":"0",
				"bp":"0",
				"xt_derivs":[
					2,
					1
				]
			},
			{
				"coefficient":"((1 + 2*x)*(-1 + 4*t - 4*x - 4*x^2)^2*(-1 + 4*t + 4*x - 4*x^2))\/128",
				"perm":1234,
				"e":0,
				"ap":"0",
				"bp":"0",
				"xt_derivs":[
					3,
					0
				]
			}
		]
	}
}