{
	"dimension_var":"d",
	"spin_var":"l",
	"x_var":"x",
	"t_var":"t",
	"spurious_poles":[],
	"spurious_poles_L":[],
	"poles":[
		"1",
		"1"
	],
	"poles_L":[],
	"p":0,
	"type":"primal",
	"seed_type":"primal",
	"lambda_shift":8,
	"description":[],
	"exported_blocks":[
		"blockP0SpinOddStructure6"
	],
	"blockP0SpinOddStructure6":{
		"zPower":"-3",
		"one_minus_zPower":"0",
		"h_infinity_order":0,
		"value":[
			{
				"coefficient":"-(-5 + 56*t + 368*t^2 - 16*x + 896*t*x + 56*x^2 + 1696*t*x^2 + 256*x^3 + 240*x^4)\/(64*l^2)",
				"perm":1234,
				"e":0,
				"ap":"0",
				"bp":"0",
				"xt_derivs":[
					0,
					1
				]
			},
			{
				"coefficient":"-(t*(-25 - 24*t + 1008*t^2 - 200*x + 2720*t*x + 232*x^2 + 6560*t*x^2 + 2528*x^3 + 2928*x^4))\/(64*l^2)",
				"perm":1234,
				"e":0,
				"ap":"0",
				"bp":"0",
				"xt_derivs":[
					0,
					2
				]
			},
			{
				"coefficient":"-((t^2*(-2*t + 8*t^2 - 3*x + 20*t*x + 56*t*x^2 + 36*x^3 + 48*x^4))\/l^2)",
				"perm":1234,
				"e":0,
				"ap":"0",
				"bp":"0",
				"xt_derivs":[
					0,
					3
				]
			},
			{
				"coefficient":"-(t^3*(-1 + 4*t + 4*x + 12*x^2)^2)\/(16*l^2)",
				"perm":1234,
				"e":0,
				"ap":"0",
				"bp":"0",
				"xt_derivs":[
					0,
					4
				]
			},
			{
				"coefficient":"-(4*t + x + 12*t*x + 4*x^2 + 4*x^3)\/(4*l^2)",
				"perm":1234,
				"e":0,
				"ap":"0",
				"bp":"0",
				"xt_derivs":[
					1,
					0
				]
			},
			{
				"coefficient":"-(-1 - 184*t + 1264*t^2 - 30*x + 272*t*x + 5536*t^2*x - 104*x^2 + 4960*t*x^2 + 16*x^3 + 7360*t*x^3 + 432*x^4 + 416*x^5)\/(128*l^2)",
				"perm":1234,
				"e":0,
				"ap":"0",
				"bp":"0",
				"xt_derivs":[
					1,
					1
				]
			},
			{
				"coefficient":"-(t*(5 - 136*t + 464*t^2 - 42*x - 80*t*x + 2528*t^2*x - 248*x^2 + 3232*t*x^2 - 80*x^3 + 5696*t*x^3 + 912*x^4 + 992*x^5))\/(64*l^2)",
				"perm":1234,
				"e":0,
				"ap":"0",
				"bp":"0",
				"xt_derivs":[
					1,
					2
				]
			},
			{
				"coefficient":"-(t^2*(-1 + 4*t + 4*x + 12*x^2)*(-1 + 4*t - 2*x + 24*t*x + 4*x^2 + 8*x^3))\/(16*l^2)",
				"perm":1234,
				"e":0,
				"ap":"0",
				"bp":"0",
				"xt_derivs":[
					1,
					3
				]
			},
			{
				"coefficient":"-(-7 + 40*t + 208*t^2 - 32*x + 704*t*x + 8*x^2 + 1376*t*x^2 + 192*x^3 + 208*x^4)\/(128*l^2)",
				"perm":1234,
				"e":0,
				"ap":"0",
				"bp":"0",
				"xt_derivs":[
					2,
					0
				]
			},
			{
				"coefficient":"-(1 - 32*t + 16*t^2 + 384*t^3 + 4*x - 288*t*x + 1856*t^2*x - 4*x^2 - 128*t*x^2 + 4672*t^2*x^2 - 32*x^3 + 1920*t*x^3 - 16*x^4 + 2560*t*x^4 + 64*x^5 + 64*x^6)\/(128*l^2)",
				"perm":1234,
				"e":0,
				"ap":"0",
				"bp":"0",
				"xt_derivs":[
					2,
					1
				]
			},
			{
				"coefficient":"-(t*(1 - 6*t + 32*t^3 + 4*x - 80*t*x + 256*t^2*x - 4*x^2 - 80*t*x^2 + 768*t^2*x^2 - 32*x^3 + 448*t*x^3 - 16*x^4 + 672*t*x^4 + 64*x^5 + 64*x^6))\/(64*l^2)",
				"perm":1234,
				"e":0,
				"ap":"0",
				"bp":"0",
				"xt_derivs":[
					2,
					2
				]
			},
			{
				"coefficient":"-(1 - 40*t + 144*t^2 - 2*x - 16*t*x + 608*t^2*x - 24*x^2 + 800*t*x^2 - 16*x^3 + 1344*t*x^3 + 80*x^4 + 96*x^5)\/(256*l^2)",
				"perm":1234,
				"e":0,
				"ap":"0",
				"bp":"0",
				"xt_derivs":[
					3,
					0
				]
			},
			{
				"coefficient":"-(t*(-1 + 4*t + 4*x + 12*x^2)*(-1 + 4*t - 2*x + 24*t*x + 4*x^2 + 8*x^3))\/(64*l^2)",
				"perm":1234,
				"e":0,
				"ap":"0",
				"bp":"0",
				"xt_derivs":[
					3,
					1
				]
			},
			{
				"coefficient":"-(t*(-1 + 4*t + 4*x + 12*x^2)^2)\/(256*l^2)",
				"perm":1234,
				"e":0,
				"ap":"0",
				"bp":"0",
				"xt_derivs":[
					4,
					0
				]
			}
		]
	}
}