{
	"dimension_var":"d",
	"spin_var":"l",
	"x_var":"x",
	"t_var":"t",
	"spurious_poles":[
		"0",
		"0"
	],
	"spurious_poles_L":[],
	"poles":[],
	"poles_L":[],
	"p":0,
	"type":"primal",
	"seed_type":"primal",
	"lambda_shift":6,
	"description":[],
	"exported_blocks":[
		"blockP0Spin0Structure3"
	],
	"blockP0Spin0Structure3":{
		"zPower":"-4",
		"one_minus_zPower":"0",
		"h_infinity_order":2,
		"value":[
			{
				"coefficient":"-((-1 + 4*t - 4*x - 4*x^2)^2*(-1 + 12*t + 12*x^2))\/8",
				"perm":1234,
				"e":0,
				"ap":"0",
				"bp":"0",
				"xt_derivs":[
					0,
					1
				]
			},
			{
				"coefficient":"-((-1 + 4*t - 4*x - 4*x^2)^2*(1 - 40*t + 144*t^2 - 8*x^2 + 288*t*x^2 + 16*x^4))\/64",
				"perm":1234,
				"e":0,
				"ap":"0",
				"bp":"0",
				"xt_derivs":[
					0,
					2
				]
			},
			{
				"coefficient":"-(t*(-1 + 4*t - 4*x - 4*x^2)^2*(-1 + 4*t + 4*x^2)^2)\/32",
				"perm":1234,
				"e":0,
				"ap":"0",
				"bp":"0",
				"xt_derivs":[
					0,
					3
				]
			},
			{
				"coefficient":"-(x*(1 - 4*t + 4*x + 4*x^2)^2)\/2",
				"perm":1234,
				"e":0,
				"ap":"0",
				"bp":"0",
				"xt_derivs":[
					1,
					0
				]
			},
			{
				"coefficient":"-(x*(1 - 4*t + 4*x + 4*x^2)^2*(-5 + 68*t + 20*x^2))\/16",
				"perm":1234,
				"e":0,
				"ap":"0",
				"bp":"0",
				"xt_derivs":[
					1,
					1
				]
			},
			{
				"coefficient":"(-3*t*x*(-1 + 4*t - 4*x - 4*x^2)^2*(-1 + 4*t + 4*x^2))\/8",
				"perm":1234,
				"e":0,
				"ap":"0",
				"bp":"0",
				"xt_derivs":[
					1,
					2
				]
			},
			{
				"coefficient":"-((-1 + 4*t - 4*x - 4*x^2)^2*(-1 + 4*t + 12*x^2))\/16",
				"perm":1234,
				"e":0,
				"ap":"0",
				"bp":"0",
				"xt_derivs":[
					2,
					0
				]
			},
			{
				"coefficient":"-((-1 + 4*t - 4*x - 4*x^2)^2*(1 - 8*t + 16*t^2 - 8*x^2 + 160*t*x^2 + 16*x^4))\/128",
				"perm":1234,
				"e":0,
				"ap":"0",
				"bp":"0",
				"xt_derivs":[
					2,
					1
				]
			},
			{
				"coefficient":"-(x*(-1 + 4*t + 4*x^2)*(1 - 4*t + 4*x + 4*x^2)^2)\/32",
				"perm":1234,
				"e":0,
				"ap":"0",
				"bp":"0",
				"xt_derivs":[
					3,
					0
				]
			}
		]
	}
}